BONTALIA;BONTALIA;;23/10/2017;23/10/2017;21140;Grana Padano 1/8 vacuum Export ;6 ;;
BONTALIA;BONTALIA;;23/10/2017;23/10/2017;23096;Grana Padano Fresh Grated 1 kg bag;6 ;;
BONTALIA;BONTALIA;;23/10/2017;23/10/2017;30001;Provolone Dolce 5-6 kg Pancetta;1 ;;
BONTALIA;BONTALIA;;23/10/2017;23/10/2017;40071;Taleggio dop x2;4 ;;
BONTALIA;BONTALIA;;23/10/2017;23/10/2017;40085;Gold Gorgonzola Mild 1/8 - approx. 1,5kg ;5 ;;
BONTALIA;BONTALIA;;23/10/2017;23/10/2017;40225;Blue Gorgonzola Piccante 1/8 - Approx 1,5 kg;5 ;;
BONTALIA;BONTALIA;;23/10/2017;23/10/2017;40016;Italian Cow's Milk Mozzarella Migali diced  2500g tray;45 ;;
BONTALIA;BONTALIA;;23/10/2017;23/10/2017;40019;Mozzarella pizzeria kg. 1;2 ;;
BONTALIA;BONTALIA;;23/10/2017;23/10/2017;40099;RICOTTA NOSTRANA VASC. X 1.25 CA;5 ;;
BONTALIA;BONTALIA;;23/10/2017;23/10/2017;40453;MOZZARELLA JULIENNE MIGALI 2000 g;25 ;;
BONTALIA;BONTALIA;;23/10/2017;23/10/2017;40052;Mascarpone 500g;8 ;;
BONTALIA;BONTALIA;;23/10/2017;23/10/2017;45002;Formaggio Nostranello;2 ;;
BONTALIA;BONTALIA;;23/10/2017;23/10/2017;40302;Cow's Milk Mozzarella 125g;15 ;;
BONTALIA;BONTALIA;;23/10/2017;23/10/2017;40472;Buffalo Milk Mozzarella "ciuffo" 250g;8 ;;
BONTALIA;BONTALIA;;23/10/2017;23/10/2017;40382;Formaggio al Tartufo;1 ;;
BONTALIA;BONTALIA;;23/10/2017;23/10/2017;40495;Italian Cow's Milk Mozzarella-Burrata 200g glass;4 ;;
BONTALIA;BONTALIA;;23/10/2017;23/10/2017;40354;Ricotta Vaschetta da 1,5 Kg;2 ;;
