BONTALIA;BONTALIA;;23/10/2017;23/10/2017;21140;7.5;6 ;;
BONTALIA;BONTALIA;;23/10/2017;23/10/2017;23096;9.25;6 ;;
BONTALIA;BONTALIA;;23/10/2017;23/10/2017;30001;6.3;1 ;;
BONTALIA;BONTALIA;;23/10/2017;23/10/2017;40071;6.5;4 ;;
BONTALIA;BONTALIA;;23/10/2017;23/10/2017;40085;6.5;5 ;;
BONTALIA;BONTALIA;;23/10/2017;23/10/2017;40225;7.8;5 ;;
BONTALIA;BONTALIA;;23/10/2017;23/10/2017;40016;5.25;45 ;;
BONTALIA;BONTALIA;;23/10/2017;23/10/2017;40019;4.7;2 ;;
BONTALIA;BONTALIA;;23/10/2017;23/10/2017;40099;6.5;5 ;;
BONTALIA;BONTALIA;;23/10/2017;23/10/2017;40453;5.25;25 ;;
BONTALIA;BONTALIA;;23/10/2017;23/10/2017;40052;5.85;8 ;;
BONTALIA;BONTALIA;;23/10/2017;23/10/2017;45002;5.5;2 ;;
BONTALIA;BONTALIA;;23/10/2017;23/10/2017;40302;5.95;15 ;;
BONTALIA;BONTALIA;;23/10/2017;23/10/2017;40472;9.5500000000000007;8 ;;
BONTALIA;BONTALIA;;23/10/2017;23/10/2017;40382;11.8;1 ;;
BONTALIA;BONTALIA;;23/10/2017;23/10/2017;40495;9.8000000000000007;4 ;;
BONTALIA;BONTALIA;;23/10/2017;23/10/2017;40354;;2 ;;
