CADORO;VOLALTO;2273;06/03/2017;06/03/2017;1746924;BOCCONCINO SOLIGO 100GR;3;0,490;
CADORO;VOLALTO;2273;06/03/2017;06/03/2017;1746916;BOCCONCINO 3X100 SOLIGO;7;1,461;
CADORO;VOLALTO;2273;06/03/2017;06/03/2017;1809722;STRACCHINO SOLIGO;19;0,943;
CADORO;VOLALTO;2273;06/03/2017;06/03/2017;0650648;LA CASATELLA LEA    GR350;15;4,764;
CADORO;VOLALTO;2273;06/03/2017;06/03/2017;1036474;YOG.MAGRO NATURALE SOLIGO X2;3;0,416;
CADORO;VOLALTO;2273;06/03/2017;06/03/2017;1800408;YOG.ALBICOCCA SOLIGO X2;1;0,416;
CADORO;VOLALTO;2273;06/03/2017;06/03/2017;1800457;YOG.ANANAS SOLIGO X2;2;0,416;
CADORO;VOLALTO;2273;06/03/2017;06/03/2017;1036433;YOG.BANANA SOLIGO X2;1;0,416;
CADORO;VOLALTO;2273;06/03/2017;06/03/2017;1800416;YOG.CEREALI SOLIGO X2;2;0,416;
CADORO;VOLALTO;2273;06/03/2017;06/03/2017;1800424;YOG.CILIEGIA SOLIGO X2;2;0,416;
CADORO;VOLALTO;2273;06/03/2017;06/03/2017;1036458;YOG.FRAGOLA SOLIGO X2;3;0,416;
CADORO;VOLALTO;2273;06/03/2017;06/03/2017;1036466;YOG.INTERO SOLIGO X2;3;0,416;
CADORO;VOLALTO;2273;06/03/2017;06/03/2017;1800481;YOG.VANIGLIA SOLIGO X2;1;0,416;
