CDCSRL;SAENZA;4328;15/07/2021;20/07/2021;162455;YOG.VETRO;30;;;
CDCSRL;SAENZA;4328;15/07/2021;20/07/2021;162456;YOG.VETRO;30;;;
CDCSRL;SAENZA;4328;15/07/2021;20/07/2021;138372;YOG.VETRO;30;;;
CDCSRL;SAENZA;4328;15/07/2021;20/07/2021;138371;YOG.VETRO;20;;;
CDCSRL;SAENZA;4328;15/07/2021;20/07/2021;139553;YOGURT0,1%;60;;;
CDCSRL;SAENZA;4328;15/07/2021;20/07/2021;139552;YOGURT0,1%;60;;;
CDCSRL;SAENZA;4328;15/07/2021;20/07/2021;139554;YOGURT0,1%;40;;;
CDCSRL;SAENZA;4328;15/07/2021;20/07/2021;139555;YOGURT0,1%;60;;;
CDCSRL;SAENZA;4328;15/07/2021;20/07/2021;134385;YOGURTGR.125x2;30;;;
CDCSRL;SAENZA;4328;15/07/2021;20/07/2021;103738;YOGURTGR.125x2;60;;;
CDCSRL;SAENZA;4328;15/07/2021;20/07/2021;103737;YOGURTGR.125x2;50;;;
CDCSRL;SAENZA;4328;15/07/2021;20/07/2021;103736;YOGURTGR.125x2;40;;;
CDCSRL;SAENZA;4328;15/07/2021;20/07/2021;103741;YOGURTGR.125x2;50;;;
CDCSRL;SAENZA;4328;15/07/2021;20/07/2021;132360;YOGURTGR.125x2;30;;;
CDCSRL;SAENZA;4328;15/07/2021;20/07/2021;163438;YOGURTGR.125x2;60;;;
CDCSRL;SAENZA;4328;15/07/2021;20/07/2021;103739;YOGURTGR.125x2;60;;;
CDCSRL;SAENZA;4328;15/07/2021;20/07/2021;138722;YOGURTGR.125x2;30;;;
CDCSRL;SAENZA;4328;15/07/2021;20/07/2021;103740;YOGURTGR.125x2;40;;;
CDCSRL;SAENZA;4328;15/07/2021;20/07/2021;136405;YOGURTGR.125x2;20;;;
CDCSRL;SAENZA;4328;15/07/2021;20/07/2021;103742;YOGURTGR.125x2-BIANCO;100;;;
CDCSRL;SAENZA;4328;15/07/2021;20/07/2021;103743;YOGURTGR.125x2-BIANCO;100;;;
CDCSRL;SAENZA;4328;15/07/2021;20/07/2021;132518;YOGURTGR.125x8;15;;;
CDCSRL;SAENZA;4328;15/07/2021;20/07/2021;103748;YOGURTGR.500;18;;;
CDCSRL;SAENZA;4328;15/07/2021;20/07/2021;103751;YOGURTGR.500;18;;;
CDCSRL;SAENZA;4328;15/07/2021;20/07/2021;103750;YOGURTGR.500;24;;;
CDCSRL;SAENZA;4328;15/07/2021;20/07/2021;103752;YOGURTGR.500;18;;;
CDCSRL;SAENZA;4328;15/07/2021;20/07/2021;103754;YOGURTGR.500-BIANCO;30;;;
CDCSRL;SAENZA;4328;15/07/2021;20/07/2021;103753;YOGURTGR.500-INTERO;30;;;
CDCSRL;SAENZA;4328;15/07/2021;20/07/2021;138369;YOGURTVETRO;30;;;
CDCSRL;SAENZA;4328;15/07/2021;20/07/2021;138370;YOGURTVETRO;20;;;
