CIRCLEVIEW;CIRCLEVIEW;055;12/06/2019;21/06/2019;30001;Provolonedolce;12;5,900;;
CIRCLEVIEW;CIRCLEVIEW;055;12/06/2019;21/06/2019;21257;GranaPadano;15;12,000;;
CIRCLEVIEW;CIRCLEVIEW;055;12/06/2019;21/06/2019;40188;Scamorzaaffumicata;5;6,200;;
CIRCLEVIEW;CIRCLEVIEW;055;12/06/2019;21/06/2019;20253;ParmigianoReggiano;5;15,000;;
CIRCLEVIEW;CIRCLEVIEW;055;12/06/2019;21/06/2019;30085;PecorinoRomano;5;8,800;;
CIRCLEVIEW;CIRCLEVIEW;055;12/06/2019;21/06/2019;21140;GranaPadano;15;8,000;;
CIRCLEVIEW;CIRCLEVIEW;055;12/06/2019;21/06/2019;23120;GranaPadano;20;10,300;;
CIRCLEVIEW;CIRCLEVIEW;055;12/06/2019;21/06/2019;40527;TaleggioDOP;1;8,300;;
CIRCLEVIEW;CIRCLEVIEW;055;12/06/2019;21/06/2019;40236;Gorgonzoladolce;2;8,000;;
CIRCLEVIEW;CIRCLEVIEW;055;12/06/2019;21/06/2019;40053;Mascarpone250g;2;4,800;;
CIRCLEVIEW;CIRCLEVIEW;055;12/06/2019;21/06/2019;40052;Mascarpone500g;2;4,600;;
CIRCLEVIEW;CIRCLEVIEW;055;12/06/2019;21/06/2019;40353;Ricotta250g;3;2,700;;
CIRCLEVIEW;CIRCLEVIEW;055;12/06/2019;21/06/2019;40189;Scamorzabianca;2;6,000;;
CIRCLEVIEW;CIRCLEVIEW;055;12/06/2019;21/06/2019;30099;Provolonedolce;2;7,000;;
CIRCLEVIEW;CIRCLEVIEW;055;12/06/2019;21/06/2019;30100;Provolonepiccante;1;7,200;;
CIRCLEVIEW;CIRCLEVIEW;055;12/06/2019;21/06/2019;40329;GorgonzolaBio;1;12,400;;
