CONAD;FORLI;65781;26/02/2021;27/02/2021;1524;YOG.NATURALEGR.125X2;61;;;
CONAD;FORLI;65781;26/02/2021;27/02/2021;1524;YOG.MAGROGR.125X2;60;;;
CONAD;FORLI;65781;26/02/2021;27/02/2021;7895;YOG.MAGROGR.500;41;;;
CONAD;FORLI;65781;26/02/2021;27/02/2021;7895;YOG.NATURALEGR.500;51;;;
CONAD;FORLI;65781;26/02/2021;27/02/2021;8871;BURROGR.125;6;;;
CONAD;FORLI;65781;26/02/2021;27/02/2021;16660;YOGURTFRAGOLA;22;;;
CONAD;FORLI;65781;26/02/2021;27/02/2021;16660;YOGURTCAFFE';17;;;
CONAD;FORLI;65781;26/02/2021;27/02/2021;16660;YOGURTVANIGLIA;40;;;
CONAD;FORLI;65781;26/02/2021;27/02/2021;16660;YOGURTSTRACCIATELLA;12;;;
CONAD;FORLI;65781;26/02/2021;27/02/2021;17570;YOG.MIRTILLIGR.125X2;34;;;
CONAD;FORLI;65781;26/02/2021;27/02/2021;17570;YOG.COCCOGR.125X2;22;;;
CONAD;FORLI;65781;26/02/2021;27/02/2021;17570;YOG.CAFFE'GR.125X2;12;;;
CONAD;FORLI;65781;26/02/2021;27/02/2021;17570;YOG.LIMONEGR.125X2;26;;;
CONAD;FORLI;65781;26/02/2021;27/02/2021;17570;YOG.MANGOGR.125X2;17;;;
CONAD;FORLI;65781;26/02/2021;27/02/2021;77158;YOG.MAGROFITLINE;31;;;
CONAD;FORLI;65781;26/02/2021;27/02/2021;462572;YOGURTAGRUMI;14;;;
CONAD;FORLI;65781;26/02/2021;27/02/2021;704584;YOG.BIOMIRT.NERO;13;;;
CONAD;FORLI;65781;26/02/2021;27/02/2021;704586;YOG.BIOVANIGLIA;15;;;
CONAD;FORLI;65781;26/02/2021;27/02/2021;704588;YOG.INT.BIO;38;;;
