COOP;UDINE;4506554632;29/09/2020;30/09/2020;34905;YOG0,1%V;224;;;
COOP;UDINE;4506554632;29/09/2020;30/09/2020;34912;YOG0,1%V;112;;;
COOP;UDINE;4506554632;29/09/2020;30/09/2020;34951;YOG0,1%V;224;;;
COOP;UDINE;4506554632;29/09/2020;30/09/2020;34709;YOGFRA.INT.BIO;96;;;
COOP;UDINE;4506554632;29/09/2020;30/09/2020;34750;YOGBIA.INT.BIO;224;;;
COOP;UDINE;4506554632;29/09/2020;30/09/2020;34908;YOG0,1%V;112;;;
COOP;UDINE;4506554632;29/09/2020;30/09/2020;34701;YOGINT.CAF.BIO;128;;;
COOP;UDINE;4506554632;29/09/2020;30/09/2020;34712;YOG.INT.MIRT.BIOCOOP;80;;;
COOP;UDINE;4506554632;29/09/2020;30/09/2020;22201;YOGURTINTERO;112;;;
COOP;UDINE;4506554632;29/09/2020;30/09/2020;22224;YOGURTINT;160;;;
COOP;UDINE;4506554632;29/09/2020;30/09/2020;22213;YOGURTINTERO;64;;;
COOP;UDINE;4506554632;29/09/2020;30/09/2020;22835;YOGINT;42;;;
COOP;UDINE;4506554632;29/09/2020;30/09/2020;34717;YOGINT;112;;;
COOP;UDINE;4506554632;29/09/2020;30/09/2020;34716;YOGAGRU.INT.BIO;112;;;
