COOP;RIVALTA SCRIVIA;4900759693;06/03/2017;08/03/2017;261082000;GRANAPAD;25;0,802;
COOP;RIVALTA SCRIVIA;4900759693;06/03/2017;08/03/2017;381170008;GRAPAD;25;0,949;
COOP;RIVALTA SCRIVIA;4900759693;06/03/2017;08/03/2017;635784700;GRANAPADANO;12;9,526;
COOP;RIVALTA SCRIVIA;4900759693;06/03/2017;08/03/2017;708515700;GRANAPAD;12;7,605;
COOP;RIVALTA SCRIVIA;4900759693;06/03/2017;08/03/2017;749997500;GRANAPAD;20;0,994;
COOP;RIVALTA SCRIVIA;4900759693;06/03/2017;08/03/2017;265673000;BURROBAITA;20;1,391;
COOP;RIVALTA SCRIVIA;4900759693;06/03/2017;08/03/2017;381169009;GRANAPAD;11;11,104;
COOP;RIVALTA SCRIVIA;4900759693;06/03/2017;08/03/2017;634095400;GRANAPAD;11;14,377;
COOP;RIVALTA SCRIVIA;4900759693;06/03/2017;08/03/2017;670403200;GRANAPADANO;12;10,780;
COOP;RIVALTA SCRIVIA;4900759693;06/03/2017;08/03/2017;670404800;GRANAPADANO;12;11,700;
COOP;RIVALTA SCRIVIA;4900759693;06/03/2017;08/03/2017;690535304;GRANAPAD;10;3,440;
COOP;RIVALTA SCRIVIA;4900759693;06/03/2017;08/03/2017;712051009;GR.PAD.DOPSTICK;10;1,460;
COOP;RIVALTA SCRIVIA;4900759693;06/03/2017;08/03/2017;718616500;PARMREG;12;2,310;
COOP;RIVALTA SCRIVIA;4900759693;06/03/2017;08/03/2017;718616900;PARMREG;16;0,960;
COOP;RIVALTA SCRIVIA;4900759693;06/03/2017;08/03/2017;718617300;PARMREG;16;1,150;
COOP;RIVALTA SCRIVIA;4900759693;06/03/2017;08/03/2017;749997900;PARM.REGG.DOPGRATT.BAITA125G;20;1,237;
