GANASSA;GANASSA;;02/03/2021;04/03/21;10201;YOGURTVIPITENO;5;;;
GANASSA;GANASSA;;02/03/2021;04/03/21;10203;YOGURTVIPITENO;5;;;
GANASSA;GANASSA;;02/03/2021;04/03/21;25509;YOGURTVIP.;1;;;
GANASSA;GANASSA;;02/03/2021;04/03/21;10206;YOGURTVIPITENO;5;;;
GANASSA;GANASSA;;02/03/2021;04/03/21;25512;YOGURTVIP.;5;;;
GANASSA;GANASSA;;02/03/2021;04/03/21;25517;YOGURTVIP.;1;;;
GANASSA;GANASSA;;02/03/2021;04/03/21;10209;YOGURTVIPITENO;5;;;
GANASSA;GANASSA;;02/03/2021;04/03/21;25527;YOGURTVIP.;2;;;
GANASSA;GANASSA;;02/03/2021;04/03/21;10210;YOGURTVIPITENO;5;;;
GANASSA;GANASSA;;02/03/2021;04/03/21;25550;YOGURTVIP.;1;;;
GANASSA;GANASSA;;02/03/2021;04/03/21;10211;YOGURTVIPITENO;5;;;
GANASSA;GANASSA;;02/03/2021;04/03/21;10212;YOGURTVIPITENO;5;;;
GANASSA;GANASSA;;02/03/2021;04/03/21;10213;YOGURTVIPITENO;5;;;
GANASSA;GANASSA;;02/03/2021;04/03/21;10214;YOGURTVIPITENO;5;;;
GANASSA;GANASSA;;02/03/2021;04/03/21;10217;YOGURTVIPITENO;5;;;
GANASSA;GANASSA;;02/03/2021;04/03/21;25908;YOG.VIP.;3;;;
GANASSA;GANASSA;;02/03/2021;04/03/21;25910;YOG.VIP.;1;;;
GANASSA;GANASSA;;02/03/2021;04/03/21;10224;YOGURTVIPITENO;5;;;
GANASSA;GANASSA;;02/03/2021;04/03/21;10250;YOGURTVIPITENO;10;;;
GANASSA;GANASSA;;02/03/2021;04/03/21;10251;YOGURTVIPITENO;10;;;
GANASSA;GANASSA;;02/03/2021;04/03/21;10409;YOGURTVIPITENO;3;;;
GANASSA;GANASSA;;02/03/2021;04/03/21;10411;YOGURTVIPITENO;2;;;
GANASSA;GANASSA;;02/03/2021;04/03/21;10412;YOGURTVIPITENO;2;;;
GANASSA;GANASSA;;02/03/2021;04/03/21;28201;YOGURTVIPIT.;5;;;
GANASSA;GANASSA;;02/03/2021;04/03/21;10417;YOGURTVIPITENO;2;;;
GANASSA;GANASSA;;02/03/2021;04/03/21;10450;YOGURTVIPITENO;8;;;
GANASSA;GANASSA;;02/03/2021;04/03/21;28217;YOGURTVIPIT.;5;;;
GANASSA;GANASSA;;02/03/2021;04/03/21;28232;YOGURTVIPIT.;10;;;
GANASSA;GANASSA;;02/03/2021;04/03/21;30101;YOGURTVIPITENO;2;;;
GANASSA;GANASSA;;02/03/2021;04/03/21;30103;YOGURTVIPITENO;1;;;
GANASSA;GANASSA;;02/03/2021;04/03/21;30109;YOGURTVIPITENO;1;;;
GANASSA;GANASSA;;02/03/2021;04/03/21;30111;YOGURTVIPITENO;2;;;
