GANASSA;GANASSA;;05/01/2022;10/01/2022;10001;YOGURTVIPITENO;3;;;
GANASSA;GANASSA;;05/01/2022;10/01/2022;10004;YOGURTVIPITENO;3;;;
GANASSA;GANASSA;;05/01/2022;10/01/2022;10005;YOGURTVIPITENO;5;;;
GANASSA;GANASSA;;05/01/2022;10/01/2022;10007;YOGURTVIPITENO;5;;;
GANASSA;GANASSA;;05/01/2022;10/01/2022;10009;YOGURTVIPITENO;5;;;
GANASSA;GANASSA;;05/01/2022;10/01/2022;10010;YOGURTVIPITENO;3;;;
GANASSA;GANASSA;;05/01/2022;10/01/2022;10011;YOGURTVIPITENO;5;;;
GANASSA;GANASSA;;05/01/2022;10/01/2022;10012;YOGURTVIPITENO;5;;;
GANASSA;GANASSA;;05/01/2022;10/01/2022;10017;YOGURTVIPITENO;3;;;
GANASSA;GANASSA;;05/01/2022;10/01/2022;10050;YOGURTVIPITENO;5;;;
GANASSA;GANASSA;;05/01/2022;10/01/2022;10201;YOGURTVIPITENO;10;;;
GANASSA;GANASSA;;05/01/2022;10/01/2022;10203;YOGURTVIPITENO;10;;;
GANASSA;GANASSA;;05/01/2022;10/01/2022;10206;YOGURTVIPITENO;5;;;
GANASSA;GANASSA;;05/01/2022;10/01/2022;10207;YOGURTVIPITENO;10;;;
GANASSA;GANASSA;;05/01/2022;10/01/2022;10209;YOGURTVIPITENO;10;;;
GANASSA;GANASSA;;05/01/2022;10/01/2022;10210;YOGURTVIPITENO;10;;;
GANASSA;GANASSA;;05/01/2022;10/01/2022;10211;YOGURTVIPITENO;5;;;
GANASSA;GANASSA;;05/01/2022;10/01/2022;10212;YOGURTVIPITENO;15;;;
GANASSA;GANASSA;;05/01/2022;10/01/2022;10213;YOGURTVIPITENO;5;;;
GANASSA;GANASSA;;05/01/2022;10/01/2022;10214;YOGURTVIPITENO;5;;;
GANASSA;GANASSA;;05/01/2022;10/01/2022;26011;YOGURTDELLE;2;;;
GANASSA;GANASSA;;05/01/2022;10/01/2022;10217;YOGURTVIPITENO;5;;;
GANASSA;GANASSA;;05/01/2022;10/01/2022;10218;YOGURTVIPITENO;5;;;
GANASSA;GANASSA;;05/01/2022;10/01/2022;26050;YOGURTDELLE;1;;;
GANASSA;GANASSA;;05/01/2022;10/01/2022;10219;YOGURTVIPITENO;5;;;
GANASSA;GANASSA;;05/01/2022;10/01/2022;27233;YOGURTSAP.;5;;;
GANASSA;GANASSA;;05/01/2022;10/01/2022;10227;YOGURTVIPITENO;5;;;
GANASSA;GANASSA;;05/01/2022;10/01/2022;28209;YOGURTVIPIT.;5;;;
GANASSA;GANASSA;;05/01/2022;10/01/2022;10250;YOGURTVIPITENO;25;;;
GANASSA;GANASSA;;05/01/2022;10/01/2022;28211;YOGURTVIPIT.;5;;;
GANASSA;GANASSA;;05/01/2022;10/01/2022;10251;YOGURTVIPITENO;20;;;
GANASSA;GANASSA;;05/01/2022;10/01/2022;28232;YOGURTVIPIT.;5;;;
GANASSA;GANASSA;;05/01/2022;10/01/2022;10401;YOGURTVIPITENO;2;;;
GANASSA;GANASSA;;05/01/2022;10/01/2022;30101;YOGURTVIPITENO;1;;;
GANASSA;GANASSA;;05/01/2022;10/01/2022;10403;YOGURTVIPITENO;3;;;
GANASSA;GANASSA;;05/01/2022;10/01/2022;10409;YOGURTVIPITENO;2;;;
GANASSA;GANASSA;;05/01/2022;10/01/2022;30109;YOGURTVIPITENO;1;;;
GANASSA;GANASSA;;05/01/2022;10/01/2022;30111;YOGURTVIPITENO;1;;;
GANASSA;GANASSA;;05/01/2022;10/01/2022;10411;YOGURTVIPITENO;3;;;
GANASSA;GANASSA;;05/01/2022;10/01/2022;30150;YOGURTVIPITENO;1;;;
GANASSA;GANASSA;;05/01/2022;10/01/2022;10416;YOGURTVIPITENO;3;;;
GANASSA;GANASSA;;05/01/2022;10/01/2022;10417;YOGURTVIPITENO;2;;;
GANASSA;GANASSA;;05/01/2022;10/01/2022;10450;YOGURTVIPITENO;8;;;
GANASSA;GANASSA;;05/01/2022;10/01/2022;40010;burrogr.125;2;;;
GANASSA;GANASSA;;05/01/2022;10/01/2022;10451;YOGURTVIPITENO;3;;;
GANASSA;GANASSA;;05/01/2022;10/01/2022;10650;YOGURTVIPITENO;5;;;
