GEIA;REITAN;KO-087496;28/02/2018;13/03/2018;40288;Mascarpone 250;200;;;
GEIA;REITAN;KO-087496;28/02/2018;13/03/2018;40326;ěkologisk Mozzarella;304;;;
GEIA;REITAN;KO-087496;28/02/2018;13/03/2018;40353;Ricotta 6;300;;;
GEIA;REITAN;KO-087496;28/02/2018;13/03/2018;21113;Grana Padano;432;;;
GEIA;REITAN;KO-087496;28/02/2018;13/03/2018;23107;Revet ital.;1080;;;
GEIA;REITAN;KO-087496;28/02/2018;13/03/2018;20338;Parmigiano Reggiano;216;;;
