GIUBELLI;GIUBELLI;;;23/07/2021;028;LATTE BIO INTERO 1000ml TETRATOP;10;;
GIUBELLI;GIUBELLI;;;23/07/2021;508;MOZZARELLA SOLIGO FILONE 1000g;5;;
GIUBELLI;GIUBELLI;;;23/07/2021;519;MOZZARELLA JULIENNE 1500g;1;;
GIUBELLI;GIUBELLI;;;23/07/2021;524;MOZZARELLA SOLIGO BOCCONCINO STG 100g;6;;
