GROS;ROMA;89780;12/03/2021;15/03/2021;25450;YOG.BIOINTERO;32;;;
GROS;ROMA;89780;12/03/2021;15/03/2021;25451;YOG.BIOMAGRO;16;;;
GROS;ROMA;89780;12/03/2021;15/03/2021;10250;YOG.INTEROBIANCO;152;;;
GROS;ROMA;89780;12/03/2021;15/03/2021;10350;YOG.INTEROBIANCO;104;;;
GROS;ROMA;89780;12/03/2021;15/03/2021;10850;YOG.INTEROBIANCO;126;;;
GROS;ROMA;89780;12/03/2021;15/03/2021;10403;YOG.LIMONE500;48;;;
GROS;ROMA;89780;12/03/2021;15/03/2021;10451;YOG.MAGRO500;80;;;
GROS;ROMA;89780;12/03/2021;15/03/2021;28211;YOG.MAGROFR.DI;48;;;
GROS;ROMA;89780;12/03/2021;15/03/2021;28209;YOG.MAGROFRAGOLA;48;;;
GROS;ROMA;89780;12/03/2021;15/03/2021;28217;YOG.MAGROVANIGLIA;112;;;
GROS;ROMA;89780;12/03/2021;15/03/2021;10251;YOG.MAGROBIANCO;192;;;
GROS;ROMA;89780;12/03/2021;15/03/2021;10351;YOG.MAGROBIANCO;64;;;
GROS;ROMA;89780;12/03/2021;15/03/2021;28835;YOG.MAGRO0,1%;60;;;
GROS;ROMA;89780;12/03/2021;15/03/2021;10412;YOG.MIRTILLO500;48;;;
GROS;ROMA;89780;12/03/2021;15/03/2021;10450;YOG.NATUR.500g;96;;;
GROS;ROMA;89780;12/03/2021;15/03/2021;10424;YOG.STRACCIATELLA500;48;;;
GROS;ROMA;89780;12/03/2021;15/03/2021;10205;YOG.BANANA125;120;;;
GROS;ROMA;89780;12/03/2021;15/03/2021;10211;YOG.FR.DIBOSCO;64;;;
GROS;ROMA;89780;12/03/2021;15/03/2021;10201;YOG.CAFFE`125g;120;;;
GROS;ROMA;89780;12/03/2021;15/03/2021;10209;YOG.FRAGOLA125;120;;;
GROS;ROMA;89780;12/03/2021;15/03/2021;10203;YOG.LIMONE125;120;;;
GROS;ROMA;89780;12/03/2021;15/03/2021;10212;YOG.MIRTILLO125;120;;;
GROS;ROMA;89780;12/03/2021;15/03/2021;10224;YOG.STRACCIATELLA125;120;;;
