IPERCONAD;SAN BIAGIO;13654;02/10/2021;04/10/2021;544;SOLIGOMOZZARELLA;2,00;;;
IPERCONAD;SAN BIAGIO;13654;02/10/2021;04/10/2021;541;MOZZARELLASOLIGO;1,00;;;
IPERCONAD;SAN BIAGIO;13654;02/10/2021;04/10/2021;293;SOLIGOCUOR;1,00;;;
IPERCONAD;SAN BIAGIO;13654;02/10/2021;04/10/2021;286;SOLIGOSTRACCH.ALTA;1,00;;;
IPERCONAD;SAN BIAGIO;13654;02/10/2021;04/10/2021;258;SOLIGOMASCARPONE;1,00;;;
IPERCONAD;SAN BIAGIO;13654;02/10/2021;04/10/2021;834;SOLIGOYOG.MAGRO;1,00;;;
IPERCONAD;SAN BIAGIO;13654;02/10/2021;04/10/2021;821;SOLIGOYOG.INTERO;1,00;;;
IPERCONAD;SAN BIAGIO;13654;02/10/2021;04/10/2021;827;SOLIGOYOG.INT.125GRX2;1,00;;;
IPERCONAD;SAN BIAGIO;13654;02/10/2021;04/10/2021;829;SOLIGOYOGURT;1,00;;;
IPERCONAD;SAN BIAGIO;13654;02/10/2021;04/10/2021;174;FRATINODESSERT;3,00;;;
IPERCONAD;SAN BIAGIO;13654;02/10/2021;04/10/2021;666938001;SOLIGOLATTE;1,00;;;
IPERCONAD;SAN BIAGIO;13654;02/10/2021;04/10/2021;092;TREVENLATLATTE;1,00;;;
IPERCONAD;SAN BIAGIO;13654;02/10/2021;04/10/2021;94;SOLIGOLATTE;1,00;;;
IPERCONAD;SAN BIAGIO;13654;02/10/2021;04/10/2021;169;SOLIGLATTE;1,00;;;
IPERCONAD;SAN BIAGIO;13654;02/10/2021;04/10/2021;078;TREVENLATLATTE;1,00;;;
IPERCONAD;SAN BIAGIO;13654;02/10/2021;04/10/2021;91;LATTE1883;1,00;;;
IPERCONAD;SAN BIAGIO;13654;02/10/2021;04/10/2021;071;SOLIGOLATTE;1,00;;;
IPERCONAD;SAN BIAGIO;13654;02/10/2021;04/10/2021;85;SOLIGOLATTE;1,00;;;
IPERCONAD;SAN BIAGIO;13654;02/10/2021;04/10/2021;028;LATTERIASOLIGO;1,00;;;
IPERCONAD;SAN BIAGIO;13654;02/10/2021;04/10/2021;044;SOLIGOPANNA;1,00;;;
IPERCONAD;SAN BIAGIO;13654;02/10/2021;04/10/2021;050;SOLIGOPANNA;1,00;;;
IPERCONAD;SAN BIAGIO;13654;02/10/2021;04/10/2021;602;SOLIGOBURRO;1,00;;;
IPERCONAD;SAN BIAGIO;13654;02/10/2021;04/10/2021;600;SOLIGOBURRO;1,00;;;
IPERCONAD;SAN BIAGIO;13654;02/10/2021;04/10/2021;124;SOLIGOLATTE;4,00;;;
IPERCONAD;SAN BIAGIO;13654;02/10/2021;04/10/2021;160;SOLIGOLATTE;2,00;;;
IPERCONAD;SAN BIAGIO;13654;02/10/2021;04/10/2021;186;SOLIGOPANNA;1,00;;;
