MAKRO;MAKRO;70208204;07/10/2021;07/10/2021;20126;PARM.REGG.EXPORT G.200 SCR.CAL.TRF;27;
MAKRO;MAKRO;70208204;07/10/2021;07/10/2021;20028;PARM.REGG.AMBROSI GR.300 SCROST.SV.;4;
MAKRO;MAKRO;70208204;07/10/2021;07/10/2021;23038;PARM.REGG. GRATT. AMBROSI GR.100;5;
MAKRO;MAKRO;70208204;07/10/2021;07/10/2021;21346;GRANA PADANO KG. 1 SV MC;22;
MAKRO;MAKRO;70208204;07/10/2021;07/10/2021;23291;GRANA PADANO GRATT. GR. 800 MC;60;
MAKRO;MAKRO;70208204;07/10/2021;07/10/2021;21113;GRANA PADANO EXPO.G.200 SCR.CAL TRF;27;
MAKRO;MAKRO;70208204;07/10/2021;07/10/2021;30120;PROVOLONE PROVOLETTA GR.800/900 CA.;9;
MAKRO;MAKRO;70208204;07/10/2021;07/10/2021;30099;PROVOLONE VALPADANA DOP.D.250GE ATM;12;
MAKRO;MAKRO;70208204;07/10/2021;07/10/2021;30100;PROVOLONE VALPADANA DOP P.250GE ATM;6;
MAKRO;MAKRO;70208204;07/10/2021;07/10/2021;23145;GRANA PADANO SCAGLIE 150G VAS. CAL.;20;
MAKRO;MAKRO;70208204;07/10/2021;07/10/2021;23017;GRANA PADANO GRATTUGIATO GR. 100;5;
MAKRO;MAKRO;70208204;07/10/2021;07/10/2021;23031;FORM.GRATT.FRESCO MIX AMBROSI GR100;5;
MAKRO;MAKRO;70208204;07/10/2021;07/10/2021;23097;GRATTUGIATO MIX AMBROSI GR.500;12;
MAKRO;MAKRO;70208204;07/10/2021;07/10/2021;30085;PECORINO ROMANO AMBR.200CAL.TRF;10;
MAKRO;MAKRO;70208204;07/10/2021;07/10/2021;30150;MONTASIO GR. 100;10;
MAKRO;MAKRO;70208204;07/10/2021;07/10/2021;40188;SCAMORZA AFFUM. GR.250X10  P.FISSO;7;
MAKRO;MAKRO;70208204;07/10/2021;07/10/2021;40189;SCAMORZA BIANCA GR.250X10  P.FISSO;3;
MAKRO;MAKRO;70208204;07/10/2021;07/10/2021;30114;PECORINO ROMANO 8MESI 1,5KG;6;
MAKRO;MAKRO;70208204;07/10/2021;07/10/2021;40044;PROVOLA AFFUMICATA SV. KG. 1;2;
MAKRO;MAKRO;70208204;07/10/2021;07/10/2021;21343;GRANA PADANO MC 10 MESI KG. 1;62;
MAKRO;MAKRO;70208204;07/10/2021;07/10/2021;21344;GRANA PADANO MC 10 MESI KG. 2;64;
MAKRO;MAKRO;70208204;07/10/2021;07/10/2021;21345;GRANA PADANO MC 10 MESI KG. 4;37;
MAKRO;MAKRO;70208204;07/10/2021;07/10/2021;20354;PARM. REGGIANO MC 12 MESI KG. 1;11;
MAKRO;MAKRO;70208204;07/10/2021;07/10/2021;20355;PARM. REGGIANO MC 12 MESI KG. 2;38;
MAKRO;MAKRO;70208204;07/10/2021;07/10/2021;20356;PARM. REGGIANO MC 24 MESI KG. 1;11;
MAKRO;MAKRO;70208204;07/10/2021;07/10/2021;21389;GRANA PADANO GR.20X4;2;
MAKRO;MAKRO;70208204;07/10/2021;07/10/2021;20224;PARM.REGGIANO 24M GR. 200;18;
MAKRO;MAKRO;70208204;07/10/2021;07/10/2021;20253;PARMIGIANO REGGIANO 30M GR. 150;4;
MAKRO;MAKRO;70208204;07/10/2021;07/10/2021;23287;GRANA PADANO SCAGLIE GR.500X4 MC;8;
MAKRO;MAKRO;70208204;07/10/2021;07/10/2021;25016;FORMAGGIO DURO ITALIANO KG. 4 ARO;6;
MAKRO;MAKRO;70208204;07/10/2021;07/10/2021;23289;PARM.REGGIANO GRATT.GR.500 BUSTA QUAD.;8;
MAKRO;MAKRO;70208204;07/10/2021;07/10/2021;23290;GRATT. MIX KG. 1 ARO;30;
MAKRO;MAKRO;70208204;07/10/2021;07/10/2021;23288;PARM.REGGIANO SCAGLIE GR. 500 X 8 MC;2;
MAKRO;MAKRO;70208204;07/10/2021;07/10/2021;25015;FORMAGGIO DURO KG. 1 ARO;33;
