SARDI;VILLACIDRO;5002000;15/07/2021;20/07/2021;7135511;YOG.VIPITENOFRUTTA/CER;12;;;
SARDI;VILLACIDRO;5002000;15/07/2021;20/07/2021;7135994;YOG.BIOMAGRO;3;;;
SARDI;VILLACIDRO;5002000;15/07/2021;20/07/2021;7135995;YOG.BIOMAGRO;2;;;
SARDI;VILLACIDRO;5002000;15/07/2021;20/07/2021;7136768;YOGURTVIPITENO;8;;;
SARDI;VILLACIDRO;5002000;15/07/2021;20/07/2021;7136769;YOG.VIPITENOINT.COCCO;12;;;
SARDI;VILLACIDRO;5002000;15/07/2021;20/07/2021;7136771;YOG.VIP.FITLINELAMPONE/MARACUJA;2;;;
SARDI;VILLACIDRO;5002000;15/07/2021;20/07/2021;7780009;YOGURTVIPITENO;8;;;
SARDI;VILLACIDRO;5002000;15/07/2021;20/07/2021;7780010;YOGURTVIPITENO;12;;;
SARDI;VILLACIDRO;5002000;15/07/2021;20/07/2021;7780011;YOGURTVIPITENO;16;;;
SARDI;VILLACIDRO;5002000;15/07/2021;20/07/2021;7780018;YOGURTVIPITENO;8;;;
SARDI;VILLACIDRO;5002000;15/07/2021;20/07/2021;7780026;YOGURTVIPITENO;8;;;
SARDI;VILLACIDRO;5002000;15/07/2021;20/07/2021;7780027;YOGURTVIPITENO;16;;;
SARDI;VILLACIDRO;5002000;15/07/2021;20/07/2021;7780030;YOGURTVIPITENO;16;;;
SARDI;VILLACIDRO;5002000;15/07/2021;20/07/2021;7780031;YOGURTVIPITENO;8;;;
