SEVEN;BLUE CITY;57363;25/10/2017;27/10/2017;137480;YOG.BANANA;24,00;;;
SEVEN;BLUE CITY;57363;25/10/2017;27/10/2017;137481;YOG.CAFFE';32,00;;;
SEVEN;BLUE CITY;57363;25/10/2017;27/10/2017;137502;YOG.FRAGOLA;16,00;;;
SEVEN;BLUE CITY;57363;25/10/2017;27/10/2017;137504;YOG.MAGRO;624,00;;;
SEVEN;BLUE CITY;57363;25/10/2017;27/10/2017;137505;YOG.MIRTILLO;24,00;;;
SEVEN;BLUE CITY;57363;25/10/2017;27/10/2017;137506;YOG.NATURALE;240,00;;;
SEVEN;BLUE CITY;57363;25/10/2017;27/10/2017;137509;YOG.FRAGOLA;32,00;;;
SEVEN;BLUE CITY;57363;25/10/2017;27/10/2017;137511;YOG.MIRTILLO;32,00;;;
SEVEN;BLUE CITY;57363;25/10/2017;27/10/2017;137512;YOG.NATURALE;128,00;;;
SEVEN;BLUE CITY;57363;25/10/2017;27/10/2017;137513;YOG.VANIGLIA;96,00;;;
SEVEN;BLUE CITY;57363;25/10/2017;27/10/2017;137515;YOG.CILIEGIA;32,00;;;
SEVEN;BLUE CITY;57363;25/10/2017;27/10/2017;137516;BURRO;150,00;;;
SEVEN;BLUE CITY;57363;25/10/2017;27/10/2017;138197;YOG.F/BOSCO;32,00;;;
SEVEN;BLUE CITY;57363;25/10/2017;27/10/2017;174846;YOGURT;96,00;;;
SEVEN;BLUE CITY;57363;25/10/2017;27/10/2017;177350;MAGRO;96,00;;;
SEVEN;BLUE CITY;57363;25/10/2017;27/10/2017;193949;YOG.NOCCIOLA;32,00;;;
SEVEN;BLUE CITY;57363;25/10/2017;27/10/2017;222080;LIMONE;24,00;;;
SEVEN;BLUE CITY;57363;25/10/2017;27/10/2017;260978;BIO;15,00;;;
SEVEN;BLUE CITY;57363;25/10/2017;27/10/2017;261574;YOG.STRACCIATELLA;48,00;;;
SEVEN;BLUE CITY;57363;25/10/2017;27/10/2017;279043;YOG.FRUT/CER;90,00;;;
SEVEN;BLUE CITY;57363;25/10/2017;27/10/2017;371388;BIANCO;32,00;;;
SEVEN;BLUE CITY;57363;25/10/2017;27/10/2017;390168;MALTO;64,00;;;
SEVEN;BLUE CITY;57363;25/10/2017;27/10/2017;390170;AGRUMI;64,00;;;
SEVEN;BLUE CITY;57363;25/10/2017;27/10/2017;397762;0,1%;90,00;;;
SEVEN;BLUE CITY;57363;25/10/2017;27/10/2017;408974;BIANCO;64,00;;;
SEVEN;BLUE CITY;57363;25/10/2017;27/10/2017;423287;BANANA;32,00;;;
SEVEN;BLUE CITY;57363;25/10/2017;27/10/2017;445311;CA/CI;16,00;;;
