SIGOR;SIGOR;896;08/07/2020;08/07/2020;3519;MOZJULIENNE;1;;;
SIGOR;SIGOR;896;08/07/2020;08/07/2020;516;MOZZARELLAJULIENNE;34;;;
SIGOR;SIGOR;896;08/07/2020;08/07/2020;519;MOZZARELLAJULIENNE;24;;;
SIGOR;SIGOR;896;08/07/2020;08/07/2020;280;STRACCHINOSOLIGO;1;;;
