TIGROS;SOLBIATE;26071;22/04/2021;26/04/2021;5003748;VIPITENOYOGURT;16,00;;;
TIGROS;SOLBIATE;26071;22/04/2021;26/04/2021;5003750;YOGURTINTERO;48,00;;;
TIGROS;SOLBIATE;26071;22/04/2021;26/04/2021;5003751;YOGURTINTERO;48,00;;;
TIGROS;SOLBIATE;26071;22/04/2021;26/04/2021;5003752;YOGURTINTERO;96,00;;;
TIGROS;SOLBIATE;26071;22/04/2021;26/04/2021;5003753;YOGURTINTERO;48,00;;;
TIGROS;SOLBIATE;26071;22/04/2021;26/04/2021;5003754;YOGURTINTERO;32,00;;;
TIGROS;SOLBIATE;26071;22/04/2021;26/04/2021;5003755;YOGURTINTERO;24,00;;;
TIGROS;SOLBIATE;26071;22/04/2021;26/04/2021;5003756;YOG.INTEROSTRACCIATELLA;48,00;;;
TIGROS;SOLBIATE;26071;22/04/2021;26/04/2021;5003765;YOG.INTEROMIR/PES/CIL;84,00;;;
TIGROS;SOLBIATE;26071;22/04/2021;26/04/2021;5003856;YOGURTINTERO;16,00;;;
TIGROS;SOLBIATE;26071;22/04/2021;26/04/2021;5003857;YOGURTMAGRO;16,00;;;
TIGROS;SOLBIATE;26071;22/04/2021;26/04/2021;7352457;YOGURT0.1%;96,00;;;
TIGROS;SOLBIATE;26071;22/04/2021;26/04/2021;7358602;YOGURTINTERO;32,00;;;
TIGROS;SOLBIATE;26071;22/04/2021;26/04/2021;7363406;YOGURTINTERO;40,00;;;
TIGROS;SOLBIATE;26071;22/04/2021;26/04/2021;7368191;YOG.MAGROGR.125X8;40,00;;;
TIGROS;SOLBIATE;26071;22/04/2021;26/04/2021;7368759;YOGURTVIPITENO;24,00;;;
TIGROS;SOLBIATE;26071;22/04/2021;26/04/2021;7368761;YOGURTVIPITENO;24,00;;;
TIGROS;SOLBIATE;26071;22/04/2021;26/04/2021;7368762;YOGURTVIPITENO;32,00;;;
TIGROS;SOLBIATE;26071;22/04/2021;26/04/2021;7382790;YOGURTSAPORI;24,00;;;
TIGROS;SOLBIATE;26071;22/04/2021;26/04/2021;7392086;VIPITENOYOGURT;16,00;;;
TIGROS;SOLBIATE;26071;22/04/2021;26/04/2021;7704996;VIPITENOYOG.;32,00;;;
TIGROS;SOLBIATE;26071;22/04/2021;26/04/2021;7704997;VIPITENOYOG.;32,00;;;
TIGROS;SOLBIATE;26071;22/04/2021;26/04/2021;7704998;VIPITENOYOG.;32,00;;;
TIGROS;SOLBIATE;26071;22/04/2021;26/04/2021;7704999;VIPITENOYOG.;16,00;;;
TIGROS;SOLBIATE;26071;22/04/2021;26/04/2021;7705001;VIPITENOYOG.;24,00;;;
TIGROS;SOLBIATE;26071;22/04/2021;26/04/2021;7705002;VIPITENOYOG.;16,00;;;
TIGROS;SOLBIATE;26071;22/04/2021;26/04/2021;7705061;VIPITENOYOG.;12,00;;;
TIGROS;SOLBIATE;26071;22/04/2021;26/04/2021;7709084;YOGURTDELLE;40,00;;;
TIGROS;SOLBIATE;26071;22/04/2021;26/04/2021;7709085;YOGURTDELLE;48,00;;;
TIGROS;SOLBIATE;26071;22/04/2021;26/04/2021;7709086;YOGURTDELLE;48,00;;;
TIGROS;SOLBIATE;26071;22/04/2021;26/04/2021;7709087;YOGURTDELLE;16,00;;;
TIGROS;SOLBIATE;26071;22/04/2021;26/04/2021;5003747;YOGURTINTERO;48,00;;;
TIGROS;SOLBIATE;26071;22/04/2021;26/04/2021;7352459;YOGURTMAGRO;48,00;;;
TIGROS;SOLBIATE;26071;22/04/2021;26/04/2021;7368011;YOGURTVANIGLIA;32,00;;;
TIGROS;SOLBIATE;26071;22/04/2021;26/04/2021;7368012;VIPITENOYOGURT;32,00;;;
TIGROS;SOLBIATE;26071;22/04/2021;26/04/2021;7368014;YOGURTMIRTILLO;16,00;;;
TIGROS;SOLBIATE;26071;22/04/2021;26/04/2021;7382791;YOGURTCAFFE';32,00;;;
