UNICOOP;FIRENZE;177003;10/03/2021;11/03/2021;719371100;YOGURT INTERO;480;;;
UNICOOP;FIRENZE;177003;10/03/2021;11/03/2021;719371600;YOGURT INTERO;768;;;
UNICOOP;FIRENZE;177003;10/03/2021;11/03/2021;719373800;YOGURT INTERO;240;;;
UNICOOP;FIRENZE;177003;10/03/2021;11/03/2021;719374700;YOGURT INT;480;;;
UNICOOP;FIRENZE;177003;10/03/2021;11/03/2021;719375200;YOGURT INTERO;240;;;
